//BURGERS EQUTION CONST 10
$  \frac{{{p^ + } + {p^ - }}}{2} +10|\frac{ {{p^ + } + {p^ - }}}{{|{u^ + }| + | {u^ - }| }}| * ({{u^ + } - {u^ - } }),\frac{{{u^ + } + {u^ - }}}{2}    $ & 1 & 0.170684 & 0.0501246 & 0.0144778 & 0.00404857 & 0.00110337 \\
 & 2 & 0.0103247 & 0.000930717 & 0.000102989 & 1.22383e-05 & 1.55788e-06 \\
 & 3 & 0.00159213 & 0.000117727 & 9.26817e-06 & 7.77859e-07 & 3.53927e-07 \\
 & 4 & 0.000321585 & 7.67523e-06 & 3.92834e-07 & 3.49323e-07 & nan \\
\hline
$  \frac{{{p^ + } + {p^ - }}}{2} +10 \frac{{left| {{p^ + }} \right| + \left| {{p^ - }} \right|}}{{|{u^ + }| + |{u^ - }|}}|*({u^ + } - {u^ - } + {DX} * {{p^ + } + {p^ - }} ),\frac{{{u^ + } + {u^ - }}}{2}  $ & 1 & 0.171933 & 0.0514511 & 0.0147504 & 0.0040896 & 0.00110879 \\
 & 2 & 0.0108082 & 0.000925852 & 0.000102531 & 1.22228e-05 & 1.55746e-06 \\
 & 3 & 0.00150628 & 0.000118079 & 9.38859e-06 & 7.86107e-07 & 3.54002e-07 \\
 & 4 & 0.000340237 & 8.23425e-06 & 3.92983e-07 & 3.49323e-07 & nan \\
\hline



// CONST 1
$  \frac{{{p^ + } + {p^ - }}}{2} +1|\frac{ {{p^ + } + {p^ - }}}{{|{u^ + }| + | {u^ - }| }}| * ({{u^ + } - {u^ - } }),\frac{{{u^ + } + {u^ - }}}{2}    $ & 1 & 0.244436 & 0.104711 & 0.0445247 & 0.0174684 & 0.00608575 \\
 & 2 & 0.0199929 & 0.00112359 & 0.000100286 & 1.20503e-05 & 1.54586e-06 \\
 & 3 & 0.00180985 & 0.000181183 & 1.92713e-05 & 2.00951e-06 & 3.9406e-07 \\
 & 4 & 0.000483774 & 1.9149e-05 & 3.94822e-07 & 3.49321e-07 & nan \\
\hline
$  \frac{{{p^ + } + {p^ - }}}{2} +1 \frac{{left| {{p^ + }} \right| + \left| {{p^ - }} \right|}}{{|{u^ + }| + |{u^ - }|}}|*({u^ + } - {u^ - } + {DX} * {{p^ + } + {p^ - }} ),\frac{{{u^ + } + {u^ - }}}{2}  $ & 1 & 0.240586 & 0.104045 & 0.0445852 & 0.0175563 & 0.00611537 \\
 & 2 & 0.0207574 & 0.00113072 & 0.000100265 & 1.20494e-05 & 1.54583e-06 \\
 & 3 & 0.00175821 & 0.000177949 & 1.90847e-05 & 2.00561e-06 & 3.94307e-07 \\
 & 4 & 0.0004928 & 1.97684e-05 & 3.94836e-07 & 3.49321e-07 & nan \\
\hline

//CONST 100

$  \frac{{{p^ + } + {p^ - }}}{2} +100|\frac{ {{p^ + } + {p^ - }}}{{|{u^ + }| + | {u^ - }| }}| * ({{u^ + } - {u^ - } }),\frac{{{u^ + } + {u^ - }}}{2}    $ & 1 & 0.0920944 & 0.0200444 & 0.00508411 & 0.00128424 & 0.000328645 \\
 & 2 & 0.00857933 & 0.00114632 & 0.000129304 & 1.46514e-05 & 1.73735e-06 \\
 & 3 & 0.00134237 & 7.58147e-05 & 5.55277e-06 & 5.50902e-07 & 0.000634119 \\
 & 4 & 0.000175449 & 6.15534e-06 & 4.01601e-07 & 3.49337e-07 & nan \\
\hline
$  \frac{{{p^ + } + {p^ - }}}{2} +100 \frac{{left| {{p^ + }} \right| + \left| {{p^ - }} \right|}}{{|{u^ + }| + |{u^ - }|}}|*({u^ + } - {u^ - } + {DX} * {{p^ + } + {p^ - }} ),\frac{{{u^ + } + {u^ - }}}{2}  $ & 1 & 0.0925819 & 0.020157 & 0.00509776 & 0.00128618 & 0.0003289 \\
 & 2 & 0.00836896 & 0.00112555 & 0.000127853 & 1.45559e-05 & 1.73302e-06 \\
 & 3 & 0.00131359 & 7.61236e-05 & 5.5608e-06 & 5.5101e-07 & 0.000621963 \\
 & 4 & 0.000178604 & 6.12442e-06 & 4.00342e-07 & 3.49337e-07 & nan \\
\hline


//HEAT EQUTION

$  \frac{{{p^ + } + {p^ - }}}{2} +10|\frac{ {{p^ + } + {p^ - }}}{{|{u^ + }| + | {u^ - }| }}| * ({{u^ + } - {u^ - } }),\frac{{{u^ + } + {u^ - }}}{2}    $ & 1 & 0.04942 & 0.0150318 & 0.00488762 & nan & nan \\
 & 2 & 0.00574074 & 0.00591139 & nan & nan & nan \\
 & 3 & 0.0104442 & 0.149149 & nan & nan & nan \\
 & 4 & 0.0099202 & nan & nan & nan & nan \\
\hline
$  \frac{{{p^ + } + {p^ - }}}{2} +10 \frac{{left| {{p^ + }} \right| + \left| {{p^ - }} \right|}}{{|{u^ + }| + |{u^ - }|}}|*({u^ + } - {u^ - } + {DX} * {{p^ + } + {p^ - }} ),\frac{{{u^ + } + {u^ - }}}{2}  $ & 1 & 0.0486788 & 0.0120468 & 0.00300293 & 0.000750154 & nan \\
 & 2 & 0.00184682 & 0.000210704 & 2.46589e-05 & 0.00184777 & nan \\
 & 3 & 9.32812e-05 & 5.87276e-06 & 3.66807e-07 & nan & nan \\
 & 4 & 2.06005e-06 & 5.87722e-08 & 0.00038651 & nan & nan \\
\hline


//CONST 1
$  \frac{{{p^ + } + {p^ - }}}{2} +1|\frac{ {{p^ + } + {p^ - }}}{{|{u^ + }| + | {u^ - }| }}| * ({{u^ + } - {u^ - } }),\frac{{{u^ + } + {u^ - }}}{2}    $ & 1 & 0.0518165 & 0.0128738 & 0.00366942 & 0.00121119 & 0.00045312 \\
 & 2 & 0.00148362 & 0.000547914 & 0.000421617 & 0.00115354 & nan \\
 & 3 & 0.000606841 & 0.000509908 & 0.00185379 & nan & nan \\
 & 4 & 0.000818239 & 0.000697394 & 0.0120554 & nan & nan \\
\hline
$  \frac{{{p^ + } + {p^ - }}}{2} +1 \frac{{left| {{p^ + }} \right| + \left| {{p^ - }} \right|}}{{|{u^ + }| + |{u^ - }|}}|*({u^ + } - {u^ - } + {DX} * {{p^ + } + {p^ - }} ),\frac{{{u^ + } + {u^ - }}}{2}  $ & 1 & 0.0513392 & 0.0134957 & 0.0034309 & 0.000868707 & 0.00022032 \\
 & 2 & 0.00148015 & 0.000174566 & 2.12602e-05 & 2.62681e-06 & nan \\
 & 3 & 0.000120981 & 8.44021e-06 & 5.41533e-07 & nan & nan \\
 & 4 & 1.78324e-06 & 5.25416e-08 & 1.5994e-09 & nan & nan \\
\hline


//CONST 100
$  \frac{{{p^ + } + {p^ - }}}{2} +100|\frac{ {{p^ + } + {p^ - }}}{{|{u^ + }| + | {u^ - }| }}| * ({{u^ + } - {u^ - } }),\frac{{{u^ + } + {u^ - }}}{2}    $ & 1 & 0.0597517 & 0.0979097 & nan & nan & nan \\
 & 2 & 0.030098 & nan & nan & nan & nan \\
 & 3 & nan & nan & nan & nan & nan \\
 & 4 & nan & nan & nan & nan & nan \\
\hline
$  \frac{{{p^ + } + {p^ - }}}{2} +100 \frac{{left| {{p^ + }} \right| + \left| {{p^ - }} \right|}}{{|{u^ + }| + |{u^ - }|}}|*({u^ + } - {u^ - } + {DX} * {{p^ + } + {p^ - }} ),\frac{{{u^ + } + {u^ - }}}{2}  $ & 1 & 0.0492801 & 0.0120268 & 0.0273978 & nan & nan \\
 & 2 & 0.00231838 & 0.000285895 & nan & nan & nan \\
 & 3 & 9.39563e-05 & nan & nan & nan & nan \\
 & 4 & 2.47561e-06 & nan & nan & nan & nan \\
\hline


//CONVECTION DIFFUSION 
//CONST 100
$  \frac{{{p^ + } + {p^ - }}}{2} +100 \frac{{left| {{p^ + }} \right| + \left| {{p^ - }} \right|}}{{|{u^ + }| + |{u^ - }|}}|*({u^ + } - {u^ - } + {DX} * {{p^ + } + {p^ - }} ),\frac{{{u^ + } + {u^ - }}}{2}  $ & 1 & 0.0490242 & 0.013822 & 0.00625335 & nan \\
$  \frac{{{p^ + } + {p^ - }}}{2} +1 \frac{{left| {{p^ + }} \right| + \left| {{p^ - }} \right|}}{{|{u^ + }| + |{u^ - }|}}|*({u^ + } - {u^ - } + {DX} * {{p^ + } + {p^ - }} ),\frac{{{u^ + } + {u^ - }}}{2}  $ & 1 & 0.420164 & 0.375891 & 0.33873 & 0.327869 \\
 & 2 & 0.0612994 & 0.0291262 & 0.0146149 & 0.00741371 \\
 & 3 & 0.170948 & 0.176068 & 0.176211 & nan \\
$  \frac{{{p^ + } + {p^ - }}}{2} +1|\frac{ {{p^ + } + {p^ - }}}{{|{u^ + }| + | {u^ - }| }}| * ({{u^ + } - {u^ - } }),\frac{{{u^ + } + {u^ - }}}{2}    $ & 1 & 0.200535 & 0.228474 & 0.2497 & 0.282063 \\
$ {p^ - },{u^ + } $ & 1 & 0.1996 & 0.088948 & 0.0415395 & 0.0200585 \\
$  \frac{{{p^ + } + {p^ - }}}{2} +1|\frac{ {{p^ + } + {p^ - }}}{{|{u^ + }| + | {u^ - }| }}| * ({{u^ + } - {u^ - } }),\frac{{{u^ + } + {u^ - }}}{2}    $ & 1 & 0.200535 & 0.228474 & 0.2497 & 0.282063 \\
 & 2 & 0.0510262 & 0.0258252 & 0.0136147 & 0.00713054 \\
$  \frac{{{p^ + } + {p^ - }}}{2} +1|\frac{ {{p^ + } + {p^ - }}}{{|{u^ + }| + | {u^ - }| }}| * ({{u^ + } - {u^ - } }),\frac{{{u^ + } + {u^ - }}}{2}    $ & 1 & 0.200535 & 0.228474 & 0.2497 & 0.282063 \\
 & 2 & 0.0510262 & 0.0258252 & 0.0136147 & 0.00713054 \\
 & 3 & 0.0732105 & 0.106344 & 0.12842 & nan \\
 & 4 & 0.0208984 & 0.0100599 & 0.00518254 & nan \\
\hline
